morseTrainer/out.vcd
$timescale 1ms $end
$scope module cw_trainer $end
$var wire 1 $ key $end
$var wire 1 % out $end
$var wire 1 ^ overflow $end
$var wire 1 ( underflow $end
$upscope $end
$enddefinitions $end
$dumpvars
0$
0%
0^
0(
$end
#2
1%
#102
0%
#202
1%
#302
0%
#402
1%
#502
0%
#802
1%
#902
0%
#1002
1%
#1302
0%
#1602
1%
#1702
0%
#1802
1%
#1902
0%
#2002
1%
#2302
0%
#2402
1%
#2702
0%
#2802
1%
#3102
0%
#3402
1%
#3702
0%
#3802
1%
#3902
0%
#4002
1%
#4302
0%
#4602
1%
#4702
0%
#4802
1%
#5102
0%
#5402
1%
#5502
0%
#5602
1%
#5902
0%
#6602
1%
#6702
0%
#6802
1%
#6902
0%
#7002
1%
#7102
0%
#7402
1%
#7502
0%
#7602
1%
#7902
0%
#8202
1%
#8302
0%
#8402
1%
#8502
0%
#8602
1%
#8902
0%
#9003
1%
#9303
0%
#9403
1%
#9703
0%
#10003
1%
#10303
0%
#10403
1%
#10503
0%
#10603
1%
#10903
0%
#11203
1%
#11303
0%
#11403
1%
#11703
0%
#12003
1%
#12103
0%
#12203
1%
#12503
0%
#13203
1%
#13303
0%
#13403
1%
#13503
0%
#13603
1%
#13703
0%
#14003
1%
#14103
0%
#14203
1%
#14503
0%
#14803
1%
#14903
0%
#15003
1%
#15104
0%
#15204
1%
#15504
0%
#15604
1%
#15904
0%
#16004
1%
#16304
0%
#16604
1%
#16904
0%
#17004
1%
#17104
0%
#17204
1%
#17504
0%
#17804
1%
#17904
0%
#18004
1%
#18304
0%
#18604
1%
#18704
0%
#18804
1%
#19104
0%
#19804
1%
#19904
0%
#20004
1%
#20104
0%
#20204
1%
#20304
0%
#20604
1%
#20704
0%
#20804
1%
#21104
0%
#21404
1%
#21504
0%
#21604
1%
#21704
0%
#21804
1%
#22104
0%
#22204
1%
#22504
0%
#22604
1%
#22904
0%
#23204
1%
#23504
0%
#23604
1%
#23704
0%
#23804
1%
#24104
0%
#24404
1%
#24504
0%
#24604
1%
#24904
0%
#25204
1%
#25304
0%
#25404
1%
#25704
0%
